blog/note/2018-12-07-systemc-tutorial/attachments/systemc_tutorial/trace.vcd
$date
     Jan 17, 2019       11:27:04
$end

$version
 SystemC 2.3.2-Accellera --- Feb 11 2018 10:22:29
$end

$timescale
     1 ps
$end

$scope module SystemC $end
$var wire    1  aaaaa  clk       $end
$var wire    1  aaaab  rstn       $end
$var wire   32  aaaac  in [31:0]  $end
$var wire    1  aaaad  in_vld       $end
$var wire    1  aaaae  in_rdy       $end
$var wire   32  aaaaf  out [31:0]  $end
$var wire    1  aaaag  out_vld       $end
$var wire    1  aaaah  out_rdy       $end
$var wire    1  aaaai  tap_vld_0       $end
$var wire    1  aaaaj  tap_vld_1       $end
$var wire    1  aaaak  tap_vld_2       $end
$var wire    1  aaaal  tap_vld_3       $end
$var wire    1  aaaam  tap_vld_4       $end
$upscope $end
$enddefinitions  $end

$comment
All initial values are dumped below at time 0 sec = 0 timescale units.
$end

$dumpvars
1aaaaa
0aaaab
b0 aaaac
0aaaad
1aaaae
b0 aaaaf
0aaaag
0aaaah
0aaaai
0aaaaj
0aaaak
0aaaal
0aaaam
$end

#5000
0aaaaa

#10000
1aaaaa

#15000
0aaaaa

#20000
1aaaaa

#25000
0aaaaa

#30000
1aaaaa

#35000
0aaaaa

#40000
1aaaaa

#45000
0aaaaa

#50000
1aaaaa

#55000
0aaaaa

#60000
1aaaaa

#65000
0aaaaa

#70000
1aaaaa

#75000
0aaaaa

#80000
1aaaaa

#85000
0aaaaa

#90000
1aaaaa

#95000
0aaaaa

#100000
1aaaaa
1aaaab
1aaaah

#105000
0aaaaa

#110000
1aaaaa
1aaaad

#115000
0aaaaa

#120000
1aaaaa
1aaaai

#125000
0aaaaa

#130000
1aaaaa
0aaaad
1aaaaj

#135000
0aaaaa

#140000
1aaaaa
1aaaad

#145000
0aaaaa

#150000
1aaaaa
1aaaak

#155000
0aaaaa

#160000
1aaaaa
0aaaad
1aaaal

#165000
0aaaaa

#170000
1aaaaa
1aaaad

#175000
0aaaaa

#180000
1aaaaa
0aaaad
1aaaam

#185000
0aaaaa

#190000
1aaaaa
1aaaad

#195000
0aaaaa

#200000
1aaaaa
0aaaad
1aaaag

#205000
0aaaaa

#210000
1aaaaa
0aaaag

#215000
0aaaaa

#220000
1aaaaa

#225000
0aaaaa

#230000
1aaaaa

#235000
0aaaaa

#240000
1aaaaa

#245000
0aaaaa

#250000
1aaaaa

#255000
0aaaaa

#260000
1aaaaa
1aaaad

#265000
0aaaaa

#270000
1aaaaa
1aaaag

#275000
0aaaaa

#280000
1aaaaa
0aaaad

#285000
0aaaaa

#290000
1aaaaa
0aaaag

#295000
0aaaaa

#300000
1aaaaa

#305000
0aaaaa

#310000
1aaaaa
1aaaad

#315000
0aaaaa

#320000
1aaaaa
1aaaag

#325000
0aaaaa

#330000
1aaaaa
0aaaad

#335000
0aaaaa

#340000
1aaaaa
1aaaad
0aaaag

#345000
0aaaaa

#350000
1aaaaa
1aaaag

#355000
0aaaaa

#360000
1aaaaa
0aaaad

#365000
0aaaaa

#370000
1aaaaa
1aaaad
0aaaag

#375000
0aaaaa

#380000
1aaaaa
1aaaag

#385000
0aaaaa

#390000
1aaaaa

#395000
0aaaaa

#400000
1aaaaa
0aaaad

#405000
0aaaaa

#410000
1aaaaa
1aaaad
0aaaag

#415000
0aaaaa

#420000
1aaaaa
0aaaad
1aaaag

#425000
0aaaaa

#430000
1aaaaa
0aaaag

#435000
0aaaaa

#440000
1aaaaa

#445000
0aaaaa

#450000
1aaaaa

#455000
0aaaaa

#460000
1aaaaa
1aaaad

#465000
0aaaaa

#470000
1aaaaa
0aaaad
1aaaag

#475000
0aaaaa

#480000
1aaaaa
0aaaag

#485000
0aaaaa

#490000
1aaaaa

#495000
0aaaaa

#500000
1aaaaa

#505000
0aaaaa

#510000
1aaaaa

#515000
0aaaaa

#520000
1aaaaa
1aaaad

#525000
0aaaaa

#530000
1aaaaa
1aaaag

#535000
0aaaaa

#540000
1aaaaa
0aaaad

#545000
0aaaaa

#550000
1aaaaa
0aaaag

#555000
0aaaaa

#560000
1aaaaa
1aaaad

#565000
0aaaaa

#570000
1aaaaa
0aaaad
1aaaag

#575000
0aaaaa

#580000
1aaaaa
0aaaag

